[
    {
        "id": 23,
        "name": "Daphny",
        "company": "Scooby Doo"
    },
    {
        "id": 13,
        "name": "Fred",
        "company": "Scooby Doo"
    },
    {
        "id": 2,
        "name": "Xyclops",
        "company": "X-Men"
    }
]